Wrangling Data
…
group_by()

Before we begin, update your code!

remotes::install_github("r-journalism/chjr_class", upgrade="always", quiet=TRUE)

Importing data

library(readr)

df <- read_csv("https://www.fema.gov/api/open/v2/DisasterDeclarationsSummaries.csv") 

df

# A tibble: 68,485 × 28
   femaDeclarationString disasterNumber state declarationType
   <chr>                          <dbl> <chr> <chr>          
 1 FM-5529-OR                      5529 OR    FM             
 2 FM-5528-OR                      5528 OR    FM             
 3 FM-5527-OR                      5527 OR    FM             
 4 DR-4312-CA                      4312 CA    DR             
 5 DR-4251-AL                      4251 AL    DR             
 6 DR-4251-AL                      4251 AL    DR             
 7 DR-4251-AL                      4251 AL    DR             
 8 DR-4251-AL                      4251 AL    DR             
 9 DR-4251-AL                      4251 AL    DR             
10 FM-5516-OR                      5516 OR    FM             
# ℹ 68,475 more rows
# ℹ 24 more variables: declarationDate <dttm>, fyDeclared <dbl>,
#   incidentType <chr>, declarationTitle <chr>, ihProgramDeclared <dbl>,
#   iaProgramDeclared <dbl>, paProgramDeclared <dbl>, hmProgramDeclared <dbl>,
#   incidentBeginDate <dttm>, incidentEndDate <dttm>,
#   disasterCloseoutDate <dttm>, tribalRequest <dbl>, fipsStateCode <chr>,
#   fipsCountyCode <chr>, placeCode <dbl>, designatedArea <chr>, …
…
count()

counted <- count(df, state)

counted

# A tibble: 59 × 2
   state     n
   <chr> <int>
 1 AK      344
 2 AL     1742
 3 AR     1749
 4 AS       76
 5 AZ      346
 6 CA     1686
 7 CO      667
 8 CT      266
 9 DC       23
10 DE       53
# ℹ 49 more rows

count() named column

counted <- count(df, state, name="disasters")

counted

# A tibble: 59 × 2
   state disasters
   <chr>     <int>
 1 AK          344
 2 AL         1742
 3 AR         1749
 4 AS           76
 5 AZ          346
 6 CA         1686
 7 CO          667
 8 CT          266
 9 DC           23
10 DE           53
# ℹ 49 more rows
…
arrange() in action

arrange(counted, disasters)

# A tibble: 59 × 2
   state disasters
   <chr>     <int>
 1 PW            1
 2 GU           22
 3 DC           23
 4 FM           31
 5 DE           53
 6 MH           53
 7 AS           76
 8 MP           76
 9 VI           87
10 HI          110
# ℹ 49 more rows

arrange() descending

arrange(counted, desc(disasters))

# A tibble: 59 × 2
   state disasters
   <chr>     <int>
 1 TX         5386
 2 KY         3235
 3 MO         2829
 4 FL         2791
 5 GA         2653
 6 VA         2621
 7 LA         2589
 8 OK         2581
 9 NC         2329
10 PR         2116
# ℹ 49 more rows
…
Without Pipes

counted <- count(df, state, name="disasters")
sorted_count <- arrange(counted, desc(disasters))

sorted_count

# A tibble: 59 × 2
   state disasters
   <chr>     <int>
 1 TX         5386
 2 KY         3235
 3 MO         2829
 4 FL         2791
 5 GA         2653
 6 VA         2621
 7 LA         2589
 8 OK         2581
 9 NC         2329
10 PR         2116
# ℹ 49 more rows

With Pipes

df |> 
  count(state, name="disasters") |> 
   arrange(desc(disasters))

# A tibble: 59 × 2
   state disasters
   <chr>     <int>
 1 TX         5386
 2 KY         3235
 3 MO         2829
 4 FL         2791
 5 GA         2653
 6 VA         2621
 7 LA         2589
 8 OK         2581
 9 NC         2329
10 PR         2116
# ℹ 49 more rows
…
Filtering data 2

df |> 
  filter(incidentType=="Hurricane")

# A tibble: 13,721 × 28
   femaDeclarationString disasterNumber state declarationType
   <chr>                          <dbl> <chr> <chr>          
 1 DR-4345-LA                      4345 LA    DR             
 2 DR-4345-LA                      4345 LA    DR             
 3 DR-4345-LA                      4345 LA    DR             
 4 DR-4345-LA                      4345 LA    DR             
 5 DR-4345-LA                      4345 LA    DR             
 6 DR-4345-LA                      4345 LA    DR             
 7 DR-4345-LA                      4345 LA    DR             
 8 DR-4345-LA                      4345 LA    DR             
 9 DR-4345-LA                      4345 LA    DR             
10 DR-4345-LA                      4345 LA    DR             
# ℹ 13,711 more rows
# ℹ 24 more variables: declarationDate <dttm>, fyDeclared <dbl>,
#   incidentType <chr>, declarationTitle <chr>, ihProgramDeclared <dbl>,
#   iaProgramDeclared <dbl>, paProgramDeclared <dbl>, hmProgramDeclared <dbl>,
#   incidentBeginDate <dttm>, incidentEndDate <dttm>,
#   disasterCloseoutDate <dttm>, tribalRequest <dbl>, fipsStateCode <chr>,
#   fipsCountyCode <chr>, placeCode <dbl>, designatedArea <chr>, …
…
What if you want to filter multiple items? Well, you’d have to use Boolean logic operators such as:

& means AND, in Boolean logic

| means OR, in Boolean logic

! means NOT, in Boolean logic

Illustrated

Multiple Filter in action 1

df

# A tibble: 68,485 × 28
   femaDeclarationString disasterNumber state declarationType
   <chr>                          <dbl> <chr> <chr>          
 1 FM-5529-OR                      5529 OR    FM             
 2 FM-5528-OR                      5528 OR    FM             
 3 FM-5527-OR                      5527 OR    FM             
 4 DR-4312-CA                      4312 CA    DR             
 5 DR-4251-AL                      4251 AL    DR             
 6 DR-4251-AL                      4251 AL    DR             
 7 DR-4251-AL                      4251 AL    DR             
 8 DR-4251-AL                      4251 AL    DR             
 9 DR-4251-AL                      4251 AL    DR             
10 FM-5516-OR                      5516 OR    FM             
# ℹ 68,475 more rows
# ℹ 24 more variables: declarationDate <dttm>, fyDeclared <dbl>,
#   incidentType <chr>, declarationTitle <chr>, ihProgramDeclared <dbl>,
#   iaProgramDeclared <dbl>, paProgramDeclared <dbl>, hmProgramDeclared <dbl>,
#   incidentBeginDate <dttm>, incidentEndDate <dttm>,
#   disasterCloseoutDate <dttm>, tribalRequest <dbl>, fipsStateCode <chr>,
#   fipsCountyCode <chr>, placeCode <dbl>, designatedArea <chr>, …

Multiple Filter in action 2

df |> 
  filter(incidentType=="Hurricane" | incidentType == "Fire")

# A tibble: 17,564 × 28
   femaDeclarationString disasterNumber state declarationType
   <chr>                          <dbl> <chr> <chr>          
 1 FM-5529-OR                      5529 OR    FM             
 2 FM-5528-OR                      5528 OR    FM             
 3 FM-5527-OR                      5527 OR    FM             
 4 FM-5516-OR                      5516 OR    FM             
 5 FM-5516-OR                      5516 OR    FM             
 6 FM-5514-OR                      5514 OR    FM             
 7 FM-5514-OR                      5514 OR    FM             
 8 FM-5514-OR                      5514 OR    FM             
 9 FM-5513-OR                      5513 OR    FM             
10 FM-5512-OR                      5512 OR    FM             
# ℹ 17,554 more rows
# ℹ 24 more variables: declarationDate <dttm>, fyDeclared <dbl>,
#   incidentType <chr>, declarationTitle <chr>, ihProgramDeclared <dbl>,
#   iaProgramDeclared <dbl>, paProgramDeclared <dbl>, hmProgramDeclared <dbl>,
#   incidentBeginDate <dttm>, incidentEndDate <dttm>,
#   disasterCloseoutDate <dttm>, tribalRequest <dbl>, fipsStateCode <chr>,
#   fipsCountyCode <chr>, placeCode <dbl>, designatedArea <chr>, …

%in%

disaster_list <- c("Flood", "Hail", "Typhoon")

df |> 
  filter(incidentType %in% disaster_list)

# A tibble: 11,334 × 28
   femaDeclarationString disasterNumber state declarationType
   <chr>                          <dbl> <chr> <chr>          
 1 DR-388-AL                        388 AL    DR             
 2 DR-4781-TX                      4781 TX    DR             
 3 DR-4781-TX                      4781 TX    DR             
 4 DR-4781-TX                      4781 TX    DR             
 5 DR-4781-TX                      4781 TX    DR             
 6 DR-4781-TX                      4781 TX    DR             
 7 DR-4781-TX                      4781 TX    DR             
 8 DR-4781-TX                      4781 TX    DR             
 9 DR-4781-TX                      4781 TX    DR             
10 DR-4781-TX                      4781 TX    DR             
# ℹ 11,324 more rows
# ℹ 24 more variables: declarationDate <dttm>, fyDeclared <dbl>,
#   incidentType <chr>, declarationTitle <chr>, ihProgramDeclared <dbl>,
#   iaProgramDeclared <dbl>, paProgramDeclared <dbl>, hmProgramDeclared <dbl>,
#   incidentBeginDate <dttm>, incidentEndDate <dttm>,
#   disasterCloseoutDate <dttm>, tribalRequest <dbl>, fipsStateCode <chr>,
#   fipsCountyCode <chr>, placeCode <dbl>, designatedArea <chr>, …
…
Select three

df |> 
  select(femaDeclarationString, state, 
         declarationDate, incidentType)

# A tibble: 68,485 × 4
   femaDeclarationString state declarationDate     incidentType
   <chr>                 <chr> <dttm>              <chr>       
 1 FM-5529-OR            OR    2024-08-09 00:00:00 Fire        
 2 FM-5528-OR            OR    2024-08-06 00:00:00 Fire        
 3 FM-5527-OR            OR    2024-08-02 00:00:00 Fire        
 4 DR-4312-CA            CA    2017-05-02 00:00:00 Severe Storm
 5 DR-4251-AL            AL    2016-01-21 00:00:00 Severe Storm
 6 DR-4251-AL            AL    2016-01-21 00:00:00 Severe Storm
 7 DR-4251-AL            AL    2016-01-21 00:00:00 Severe Storm
 8 DR-4251-AL            AL    2016-01-21 00:00:00 Severe Storm
 9 DR-4251-AL            AL    2016-01-21 00:00:00 Severe Storm
10 FM-5516-OR            OR    2024-07-22 00:00:00 Fire        
# ℹ 68,475 more rows

slice()

df |> 
  arrange(desc(declarationDate)) |> 
  filter(incidentType=="Flood") |> 
  select(state, declarationDate, designatedArea)

# A tibble: 11,204 × 3
   state declarationDate     designatedArea                             
   <chr> <dttm>              <chr>                                      
 1 MT    2025-09-11 00:00:00 Crow Indian Reservation                    
 2 WI    2025-09-11 00:00:00 Milwaukee (County)                         
 3 WI    2025-09-11 00:00:00 Washington (County)                        
 4 WI    2025-09-11 00:00:00 Waukesha (County)                          
 5 SD    2025-09-11 00:00:00 Lake Traverse (Sisseton) Indian Reservation
 6 IN    2025-07-22 00:00:00 Bartholomew (County)                       
 7 IN    2025-07-22 00:00:00 Brown (County)                             
 8 IN    2025-07-22 00:00:00 Clark (County)                             
 9 IN    2025-07-22 00:00:00 Crawford (County)                          
10 IN    2025-07-22 00:00:00 Decatur (County)                           
# ℹ 11,194 more rows
…
extract year! month! day!

also convert strings into date format recognized by R

mutate() I

df 

# A tibble: 68,485 × 28
   femaDeclarationString disasterNumber state declarationType
   <chr>                          <dbl> <chr> <chr>          
 1 FM-5529-OR                      5529 OR    FM             
 2 FM-5528-OR                      5528 OR    FM             
 3 FM-5527-OR                      5527 OR    FM             
 4 DR-4312-CA                      4312 CA    DR             
 5 DR-4251-AL                      4251 AL    DR             
 6 DR-4251-AL                      4251 AL    DR             
 7 DR-4251-AL                      4251 AL    DR             
 8 DR-4251-AL                      4251 AL    DR             
 9 DR-4251-AL                      4251 AL    DR             
10 FM-5516-OR                      5516 OR    FM             
# ℹ 68,475 more rows
# ℹ 24 more variables: declarationDate <dttm>, fyDeclared <dbl>,
#   incidentType <chr>, declarationTitle <chr>, ihProgramDeclared <dbl>,
#   iaProgramDeclared <dbl>, paProgramDeclared <dbl>, hmProgramDeclared <dbl>,
#   incidentBeginDate <dttm>, incidentEndDate <dttm>,
#   disasterCloseoutDate <dttm>, tribalRequest <dbl>, fipsStateCode <chr>,
#   fipsCountyCode <chr>, placeCode <dbl>, designatedArea <chr>, …

mutate() II

df |> 
  select(femaDeclarationString, state, 
         declarationDate, incidentType) 

# A tibble: 68,485 × 4
   femaDeclarationString state declarationDate     incidentType
   <chr>                 <chr> <dttm>              <chr>       
 1 FM-5529-OR            OR    2024-08-09 00:00:00 Fire        
 2 FM-5528-OR            OR    2024-08-06 00:00:00 Fire        
 3 FM-5527-OR            OR    2024-08-02 00:00:00 Fire        
 4 DR-4312-CA            CA    2017-05-02 00:00:00 Severe Storm
 5 DR-4251-AL            AL    2016-01-21 00:00:00 Severe Storm
 6 DR-4251-AL            AL    2016-01-21 00:00:00 Severe Storm
 7 DR-4251-AL            AL    2016-01-21 00:00:00 Severe Storm
 8 DR-4251-AL            AL    2016-01-21 00:00:00 Severe Storm
 9 DR-4251-AL            AL    2016-01-21 00:00:00 Severe Storm
10 FM-5516-OR            OR    2024-07-22 00:00:00 Fire        
# ℹ 68,475 more rows

mutate() III

df |> 
  select(femaDeclarationString, state, 
         declarationDate, incidentType) |> 
  mutate(year=year(declarationDate))

# A tibble: 68,485 × 5
   femaDeclarationString state declarationDate     incidentType  year
   <chr>                 <chr> <dttm>              <chr>        <dbl>
 1 FM-5529-OR            OR    2024-08-09 00:00:00 Fire          2024
 2 FM-5528-OR            OR    2024-08-06 00:00:00 Fire          2024
 3 FM-5527-OR            OR    2024-08-02 00:00:00 Fire          2024
 4 DR-4312-CA            CA    2017-05-02 00:00:00 Severe Storm  2017
 5 DR-4251-AL            AL    2016-01-21 00:00:00 Severe Storm  2016
 6 DR-4251-AL            AL    2016-01-21 00:00:00 Severe Storm  2016
 7 DR-4251-AL            AL    2016-01-21 00:00:00 Severe Storm  2016
 8 DR-4251-AL            AL    2016-01-21 00:00:00 Severe Storm  2016
 9 DR-4251-AL            AL    2016-01-21 00:00:00 Severe Storm  2016
10 FM-5516-OR            OR    2024-07-22 00:00:00 Fire          2024
# ℹ 68,475 more rows

summarize() I

df 

# A tibble: 68,485 × 28
   femaDeclarationString disasterNumber state declarationType
   <chr>                          <dbl> <chr> <chr>          
 1 FM-5529-OR                      5529 OR    FM             
 2 FM-5528-OR                      5528 OR    FM             
 3 FM-5527-OR                      5527 OR    FM             
 4 DR-4312-CA                      4312 CA    DR             
 5 DR-4251-AL                      4251 AL    DR             
 6 DR-4251-AL                      4251 AL    DR             
 7 DR-4251-AL                      4251 AL    DR             
 8 DR-4251-AL                      4251 AL    DR             
 9 DR-4251-AL                      4251 AL    DR             
10 FM-5516-OR                      5516 OR    FM             
# ℹ 68,475 more rows
# ℹ 24 more variables: declarationDate <dttm>, fyDeclared <dbl>,
#   incidentType <chr>, declarationTitle <chr>, ihProgramDeclared <dbl>,
#   iaProgramDeclared <dbl>, paProgramDeclared <dbl>, hmProgramDeclared <dbl>,
#   incidentBeginDate <dttm>, incidentEndDate <dttm>,
#   disasterCloseoutDate <dttm>, tribalRequest <dbl>, fipsStateCode <chr>,
#   fipsCountyCode <chr>, placeCode <dbl>, designatedArea <chr>, …
…
# A tibble: 1 × 1
  disasters
      <int>
1     68485

group_by() I

df |> 
  select(femaDeclarationString, state, 
         declarationDate, incidentType) |> 
  mutate(year=year(declarationDate))

# A tibble: 68,485 × 5
   femaDeclarationString state declarationDate     incidentType  year
   <chr>                 <chr> <dttm>              <chr>        <dbl>
 1 FM-5529-OR            OR    2024-08-09 00:00:00 Fire          2024
 2 FM-5528-OR            OR    2024-08-06 00:00:00 Fire          2024
 3 FM-5527-OR            OR    2024-08-02 00:00:00 Fire          2024
 4 DR-4312-CA            CA    2017-05-02 00:00:00 Severe Storm  2017
 5 DR-4251-AL            AL    2016-01-21 00:00:00 Severe Storm  2016
 6 DR-4251-AL            AL    2016-01-21 00:00:00 Severe Storm  2016
 7 DR-4251-AL            AL    2016-01-21 00:00:00 Severe Storm  2016
 8 DR-4251-AL            AL    2016-01-21 00:00:00 Severe Storm  2016
 9 DR-4251-AL            AL    2016-01-21 00:00:00 Severe Storm  2016
10 FM-5516-OR            OR    2024-07-22 00:00:00 Fire          2024
# ℹ 68,475 more rows

group_by() II

df |> 
  select(femaDeclarationString, state, 
         declarationDate, incidentType) |> 
  mutate(year=year(declarationDate)) |> 
  group_by(state) |> 
  summarize(disasters=n())

# A tibble: 59 × 2
   state disasters
   <chr>     <int>
 1 AK          344
 2 AL         1742
 3 AR         1749
 4 AS           76
 5 AZ          346
 6 CA         1686
 7 CO          667
 8 CT          266
 9 DC           23
10 DE           53
# ℹ 49 more rows

group_by() III

df |> 
  select(femaDeclarationString, state, 
         declarationDate, incidentType) |> 
  mutate(year=year(declarationDate)) |> 
  group_by(incidentType) |> 
  summarize(disasters=n())

# A tibble: 27 × 2
   incidentType    disasters
   <chr>               <int>
 1 Biological           7857
 2 Chemical                9
 3 Coastal Storm         637
 4 Dam/Levee Break        13
 5 Drought              1292
 6 Earthquake            228
 7 Fire                 3843
 8 Fishing Losses         42
 9 Flood               11204
10 Freezing              301
# ℹ 17 more rows

group_by() IV

df |> 
  select(femaDeclarationString, state, 
         declarationDate, incidentType) |> 
  mutate(year=year(declarationDate)) |> 
  group_by(state, incidentType) |> 
  summarize(disasters=n())

# A tibble: 526 × 3
# Groups:   state [59]
   state incidentType  disasters
   <chr> <chr>             <int>
 1 AK    Biological          121
 2 AK    Coastal Storm         2
 3 AK    Earthquake           13
 4 AK    Fire                 35
 5 AK    Flood                61
 6 AK    Freezing             14
 7 AK    Mud/Landslide        12
 8 AK    Other                 4
 9 AK    Severe Storm         78
10 AK    Snowstorm             4
# ℹ 516 more rows

group_by() V

df |> 
  select(femaDeclarationString, state, 
         declarationDate, incidentType) |> 
  mutate(year=year(declarationDate)) |> 
  group_by(state, incidentType, year) |> #ROTATE
  summarize(disasters=n())

# A tibble: 3,004 × 4
# Groups:   state, incidentType [526]
   state incidentType   year disasters
   <chr> <chr>         <dbl>     <int>
 1 AK    Biological     2020       121
 2 AK    Coastal Storm  2015         1
 3 AK    Coastal Storm  2018         1
 4 AK    Earthquake     1964         1
 5 AK    Earthquake     2002         6
 6 AK    Earthquake     2018         3
 7 AK    Earthquake     2019         3
 8 AK    Fire           1970         1
 9 AK    Fire           1971         2
10 AK    Fire           1973         1
# ℹ 2,994 more rows

case_when()

case_when() I

df |> 
  select(femaDeclarationString, state, 
         declarationDate, incidentType) |> 
  mutate(year=year(declarationDate))

# A tibble: 68,485 × 5
   femaDeclarationString state declarationDate     incidentType  year
   <chr>                 <chr> <dttm>              <chr>        <dbl>
 1 FM-5529-OR            OR    2024-08-09 00:00:00 Fire          2024
 2 FM-5528-OR            OR    2024-08-06 00:00:00 Fire          2024
 3 FM-5527-OR            OR    2024-08-02 00:00:00 Fire          2024
 4 DR-4312-CA            CA    2017-05-02 00:00:00 Severe Storm  2017
 5 DR-4251-AL            AL    2016-01-21 00:00:00 Severe Storm  2016
 6 DR-4251-AL            AL    2016-01-21 00:00:00 Severe Storm  2016
 7 DR-4251-AL            AL    2016-01-21 00:00:00 Severe Storm  2016
 8 DR-4251-AL            AL    2016-01-21 00:00:00 Severe Storm  2016
 9 DR-4251-AL            AL    2016-01-21 00:00:00 Severe Storm  2016
10 FM-5516-OR            OR    2024-07-22 00:00:00 Fire          2024
# ℹ 68,475 more rows
…
